…
``` r
injuries %>% 
separate(trmt_date, c("year","month","day"), sep = "-")
```

    ## # A tibble: 1,865,651 x 20
    ##    case_num year  month day      age sex   race  race_other body_part diag 
    ##    <chr>    <chr> <chr> <chr>  <dbl> <chr> <chr> <chr>      <chr>     <chr>
    ##  1 1301049~ 2013  01    01    57     Male  White <NA>       Face      Cont~
    ##  2 1301049~ 2013  01    01     0.583 Fema~ Asian <NA>       Head      Inte~
    ##  3 1301049~ 2013  01    01    59     Fema~ White <NA>       Lower Tr~ Cont~
    ##  4 1301049~ 2013  01    01    17     Fema~ White <NA>       Ankle     Stra~
    ##  5 1301049~ 2013  01    01    38     Male  White <NA>       Finger    Lace~
    ##  6 1301049~ 2013  01    01    39     Fema~ White <NA>       Wrist     Frac~
    ##  7 1301049~ 2013  01    01     1.58  Male  Other hisp       All Of B~ Pois~
    ##  8 1301050~ 2013  01    01    10     Fema~ Not ~ <NA>       Foot      Stra~
    ##  9 1301052~ 2013  01    01    37     Male  White <NA>       Knee      Lace~
    ## 10 1301052~ 2013  01    01    34     Male  White <NA>       Ankle     Stra~
    ## # ... with 1,865,641 more rows, and 10 more variables: diag_other <chr>,
    ## #   disposition <chr>, location <chr>, fmv <chr>, prod1 <dbl>, prod2 <dbl>,
    ## #   stratum <chr>, psu <dbl>, weight <dbl>, narrative <chr>
…
