Injuries Visualization by Product
…
Injuries Visualization by Product

Head and Neck Injuries by Product Between 2013-2017

prod_headdf = neiss_df %>%
  filter(body_part %in% c ("Head", "Face", "Neck",  "Ear", "Eyeball"))

prod_headdf %>%
  group_by(body_part, title) %>%
  summarize(total = n()) %>%
  arrange(desc(total))

## `summarise()` regrouping output by 'body_part' (override with `.groups` argument)

## # A tibble: 2,940 x 3
## # Groups:   body_part [5]
##    body_part title                                    total
##    <chr>     <chr>                                    <int>
##  1 Head      floors or flooring materials             44220
##  2 Head      stairs or steps                          25817
##  3 Head      beds or bedframes, other or not spec     25406
##  4 Face      floors or flooring materials             13909
##  5 Head      ceilings and walls (part of completed st 11519
##  6 Head      chairs, other or not specified           11454
##  7 Head      bicycles and accessories (excl mountain  10689
##  8 Face      stairs or steps                          10425
##  9 Face      beds or bedframes, other or not spec     10412
## 10 Face      tables, not elsewhere classified         10101
## # ... with 2,930 more rows
…
